<?xml version="1.0" standalone="no"?>
<!DOCTYPE svg PUBLIC "-//W3C//DTD SVG 20010904//EN"
 "http://www.w3.org/TR/2001/REC-SVG-20010904/DTD/svg10.dtd">
<svg version="1.0" xmlns="http://www.w3.org/2000/svg"
 width="512.000000pt" height="512.000000pt" viewBox="0 0 512.000000 512.000000"
 preserveAspectRatio="xMidYMid meet">

<g transform="translate(0.000000,512.000000) scale(0.100000,-0.100000)"
fill="#000000" stroke="none">
<path d="M2270 4683 c-530 -25 -1197 -169 -1700 -368 -63 -25 -120 -45 -126
-45 -6 0 -17 19 -24 43 -17 59 -44 93 -98 124 -131 77 -302 -9 -319 -160 -4
-32 70 -351 307 -1331 171 -709 315 -1297 320 -1306 12 -22 32 -30 75 -30 37
0 65 28 65 65 0 11 -139 596 -309 1300 -235 972 -307 1284 -300 1302 8 21 35
41 44 32 2 -3 750 -3088 866 -3577 21 -86 18 -142 -6 -142 -7 0 -17 6 -23 13
-6 7 -52 182 -102 387 -50 206 -95 392 -101 412 -24 91 -150 79 -149 -14 1
-13 45 -204 98 -425 75 -308 104 -410 124 -441 34 -51 114 -92 177 -92 115 1
211 97 211 211 0 23 -106 480 -236 1017 -129 536 -232 978 -227 983 4 4 76 31
158 59 503 172 911 244 1450 257 446 11 847 -31 1245 -128 174 -43 585 -173
595 -189 3 -5 -100 -448 -230 -983 -129 -536 -235 -994 -235 -1018 1 -116 98
-209 221 -209 53 0 136 46 167 92 21 32 59 178 193 730 177 732 178 737 127
754 -17 5 -19 12 -14 43 11 68 27 111 41 111 29 0 64 23 74 49 6 14 119 476
252 1026 182 756 240 1010 236 1042 -17 151 -188 237 -319 160 -54 -31 -81
-65 -98 -124 -7 -24 -18 -43 -24 -43 -6 0 -63 20 -126 45 -148 59 -408 143
-580 189 -154 41 -360 86 -390 86 -28 0 -70 -44 -70 -73 0 -53 25 -66 200
-106 223 -51 397 -100 603 -171 232 -79 333 -123 329 -143 -1 -9 -63 -267
-138 -574 -74 -306 -144 -597 -155 -644 l-20 -87 -192 64 c-592 195 -1053 264
-1687 251 -555 -11 -937 -77 -1467 -251 l-192 -64 -21 90 c-12 50 -81 338
-155 642 -73 303 -135 560 -137 570 -2 17 16 27 115 68 131 52 363 131 529
178 519 148 1142 220 1670 192 123 -6 288 -19 367 -28 159 -18 184 -14 202 33
12 31 -4 79 -30 92 -21 11 -256 38 -441 51 -132 9 -459 11 -620 3z m2634 -389
c3 -9 6 -26 6 -39 0 -13 -95 -417 -211 -897 -116 -480 -313 -1297 -439 -1816
-125 -519 -231 -946 -234 -950 -8 -8 -36 9 -49 30 -11 17 855 3626 879 3666
17 26 39 29 48 6z"/>
<path d="M2078 4259 c-10 -5 -22 -19 -28 -29 -6 -11 -28 -167 -50 -347 -22
-179 -41 -328 -43 -329 -2 -2 -63 130 -136 294 -73 163 -143 307 -154 320 -29
32 -79 30 -106 -4 -12 -15 -21 -35 -21 -45 0 -11 61 -155 136 -321 189 -420
182 -407 218 -429 63 -39 157 -14 191 50 12 25 105 713 105 784 0 25 -45 67
-72 67 -13 0 -31 -5 -40 -11z"/>
<path d="M2365 4245 l-25 -24 0 -385 c0 -261 4 -393 11 -409 18 -41 49 -47
225 -47 162 0 165 0 189 25 32 31 33 74 2 103 -20 19 -36 22 -147 24 l-125 3
-3 108 -3 107 126 0 c120 0 127 1 150 25 32 31 33 74 2 103 -20 19 -36 22
-147 24 l-125 3 -3 108 -3 107 126 0 c120 0 127 1 150 25 32 31 33 74 2 103
-22 21 -32 22 -201 22 -175 0 -177 0 -201 -25z"/>
<path d="M3042 4226 c-14 -19 -23 -61 -36 -178 -10 -84 -30 -254 -45 -378 -29
-235 -27 -270 9 -290 28 -15 65 -12 90 8 20 16 25 39 46 217 13 110 26 216 30
235 5 31 16 10 112 -222 59 -141 116 -265 126 -277 26 -29 71 -27 101 4 14 13
25 32 25 42 0 10 20 182 44 382 24 201 41 372 38 380 -11 34 -36 51 -72 51
-64 0 -69 -13 -99 -259 -14 -121 -28 -222 -31 -225 -3 -3 -53 108 -110 247
-58 138 -113 260 -122 269 -27 27 -82 23 -106 -6z"/>
<path d="M3705 4115 c-14 -13 -25 -35 -25 -48 0 -45 29 -67 125 -91 77 -19 90
-25 87 -42 -2 -10 -35 -154 -73 -318 -38 -165 -69 -312 -69 -328 0 -63 88 -94
127 -45 12 15 45 141 92 348 41 178 75 325 76 327 1 1 43 -7 93 -19 99 -22
118 -19 147 25 18 28 12 67 -14 90 -16 15 -476 126 -521 126 -11 0 -32 -11
-45 -25z"/>
<path d="M1170 4078 c-167 -42 -197 -56 -205 -91 -6 -22 175 -740 196 -779 22
-41 52 -40 217 3 86 22 167 47 178 54 30 19 38 59 19 95 -23 45 -52 47 -182
12 -81 -22 -115 -27 -118 -19 -10 29 -45 177 -45 190 0 9 20 18 58 27 112 24
181 50 192 71 18 33 8 80 -22 102 l-27 20 -123 -31 c-67 -17 -123 -30 -123
-29 -7 13 -53 202 -51 205 2 1 51 16 108 31 58 16 114 34 126 40 47 25 39 106
-13 127 -26 10 -50 6 -185 -28z"/>
</g>
</svg>
